\relax 
\providecommand\hyper@newdestlabel[2]{}
\providecommand\HyperFirstAtBeginDocument{\AtBeginDocument}
\HyperFirstAtBeginDocument{\ifx\hyper@anchor\@undefined
\global\let\oldcontentsline\contentsline
\gdef\contentsline#1#2#3#4{\oldcontentsline{#1}{#2}{#3}}
\global\let\oldnewlabel\newlabel
\gdef\newlabel#1#2{\newlabelxx{#1}#2}
\gdef\newlabelxx#1#2#3#4#5#6{\oldnewlabel{#1}{{#2}{#3}}}
\AtEndDocument{\ifx\hyper@anchor\@undefined
\let\contentsline\oldcontentsline
\let\newlabel\oldnewlabel
\fi}
\fi}
\global\let\hyper@last\relax 
\gdef\HyperFirstAtBeginDocument#1{#1}
\providecommand\HyField@AuxAddToFields[1]{}
\providecommand\HyField@AuxAddToCoFields[2]{}
\emailauthor{f.tillmann@campus.tu-berlin.de}{Felix Tillmann}
\emailauthor{yu.li.1@campus.tu-berlin.de}{Yu Li}
\emailauthor{taekwon.rhee@gmail.com}{Tae Kwon Rhee}
\emailauthor{seongju.kang09@gmail.com}{Seongjoo Kang}
\emailauthor{gabriel.nobis@gmx.de}{Gabriel Nobis}
\emailauthor{mspringenberg@gmail.com}{Max Springenberg}
\newlabel{e1:ref1}{{1}{1}{(a)}{equation.0.1}{}}
\newlabel{e2:b:problem}{{3}{3}{(b)}{equation.0.3}{}}
\newlabel{e2:b:ref1}{{4}{3}{(b)}{equation.0.4}{}}
\newlabel{e2:b:ref2}{{5}{3}{(b)}{equation.0.5}{}}
\newlabel{e2:b:eq1}{{6}{3}{(b)}{equation.0.6}{}}
\newlabel{e2:b:ref3}{{7}{3}{(b)}{equation.0.7}{}}
\newlabel{e2:b:eq2}{{8}{4}{(b)}{equation.0.8}{}}
\newlabel{e2:b:ref4}{{9}{4}{(b)}{equation.0.9}{}}
\newlabel{e3:a:problem}{{11}{4}{(a)}{equation.0.11}{}}
\newlabel{e3:a:v}{{13}{5}{(a)}{equation.0.13}{}}
