\relax 
\emailauthor{f.tillmann@campus.tu-berlin.de}{Felix Tillmann}
\emailauthor{yu.li.1@campus.tu-berlin.de}{Yu Li}
\emailauthor{taekwon.rhee@gmail.com}{Tae Kwon Rhee}
\emailauthor{seongju.kang09@gmail.com}{Seongjoo Kang}
\emailauthor{gabriel.nobis@gmx.de}{Gabriel Nobis}
\emailauthor{mspringenberg@gmail.com}{Max Springenberg}
\newlabel{eq:invmulti}{{1}{1}}
\newlabel{eq:normpres}{{2}{2}}
\newlabel{e2}{{}{2}}
\newlabel{eq:C}{{3}{2}}
\newlabel{e3:grad1}{{6}{4}}
\newlabel{e3:grad2}{{7}{4}}
