\relax 
\emailauthor{f.tillmann@campus.tu-berlin.de}{Felix Tillmann}
\emailauthor{yu.li.1@campus.tu-berlin.de}{Yu Li}
\emailauthor{taekwon.rhee@gmail.com}{Tae Kwon Rhee}
\emailauthor{seongju.kang09@gmail.com}{Seongjoo Kang}
\emailauthor{gabriel.nobis@gmx.de}{Gabriel Nobis}
\emailauthor{mspringenberg@gmail.com}{Max Springenberg}
\newlabel{E1:constraint1}{{1}{1}}
\newlabel{E1:constraint2}{{2}{1}}
\newlabel{E1:b:dw}{{3}{2}}
\newlabel{E1:b:rho}{{4}{2}}
\newlabel{E1:b:dxi}{{6}{2}}
\newlabel{E1:b:beta=alpha}{{7}{2}}
\newlabel{E1:b:dalpha}{{8}{3}}
