-2.0 -2.0 0.02699548325659403
-1.9 -1.9 0.0328079073873383
-1.7999999999999998 -1.7999999999999998 0.039475079150447095
-1.6999999999999997 -1.6999999999999997 0.04702453868844349
-1.5999999999999996 -1.5999999999999996 0.05546041733972782
-1.4999999999999996 -1.4999999999999996 0.06475879783294591
-1.3999999999999995 -1.3999999999999995 0.0748637328178725
-1.2999999999999994 -1.2999999999999994 0.08568429602390375
-1.1999999999999993 -1.1999999999999993 0.09709302749160656
-1.0999999999999992 -1.0999999999999992 0.10892608851627539
-0.9999999999999991 -0.9999999999999991 0.1209853622595718
-0.899999999999999 -0.899999999999999 0.13304262494937752
-0.7999999999999989 -0.7999999999999989 0.1448457763807415
-0.6999999999999988 -0.6999999999999988 0.15612696668338077
-0.5999999999999988 -0.5999999999999988 0.16661230144589997
-0.49999999999999867 -0.49999999999999867 0.17603266338214987
-0.3999999999999986 -0.3999999999999986 0.18413507015166178
-0.2999999999999985 -0.2999999999999985 0.19069390773026215
-0.1999999999999984 -0.1999999999999984 0.19552134698772802
-0.09999999999999831 -0.09999999999999831 0.19847627373850593
1.7763568394002505e-15 1.7763568394002505e-15 0.19947114020071635
0.10000000000000187 0.10000000000000187 0.19847627373850585
0.20000000000000195 0.20000000000000195 0.19552134698772788
0.30000000000000204 0.30000000000000204 0.19069390773026193
0.40000000000000213 0.40000000000000213 0.1841350701516615
0.5000000000000022 0.5000000000000022 0.17603266338214957
0.6000000000000023 0.6000000000000023 0.1666123014458996
0.7000000000000024 0.7000000000000024 0.15612696668338039
0.8000000000000025 0.8000000000000025 0.1448457763807411
0.9000000000000026 0.9000000000000026 0.1330426249493771
1.0000000000000027 1.0000000000000027 0.12098536225957135
1.1000000000000028 1.1000000000000028 0.10892608851627494
1.2000000000000028 1.2000000000000028 0.09709302749160616
1.300000000000003 1.300000000000003 0.08568429602390336
1.400000000000003 1.400000000000003 0.07486373281787212
1.500000000000003 1.500000000000003 0.06475879783294557
1.6000000000000032 1.6000000000000032 0.0554604173397275
1.7000000000000033 1.7000000000000033 0.0470245386884432
1.8000000000000034 1.8000000000000034 0.03947507915044684
1.9000000000000035 1.9000000000000035 0.03280790738733808