\relax 
\emailauthor{f.tillmann@campus.tu-berlin.de}{Felix Tillmann}
\emailauthor{yu.li.1@campus.tu-berlin.de}{Yu Li}
\emailauthor{taekwon.rhee@gmail.com}{Tae Kwon Rhee}
\emailauthor{seongju.kang09@gmail.com}{Seongjoo Kang}
\emailauthor{gabriel.nobis@gmx.de}{Gabriel Nobis}
\emailauthor{mspringenberg@gmail.com}{Max Springenberg}
\newlabel{eq:mom}{{1}{1}}
\newlabel{al:lag}{{2}{2}}
\newlabel{eq:con1}{{3}{2}}
\newlabel{eq:con4}{{4}{2}}
\newlabel{eq:odd}{{5}{2}}
\newlabel{eq:lam1}{{6}{2}}
\newlabel{e3:a:E[x]}{{7}{5}}
\newlabel{e3:a:E[xxT]}{{8}{5}}
\newlabel{e3:a:||w||2}{{9}{5}}
