\relax 
\emailauthor{f.tillmann@campus.tu-berlin.de}{Felix Tillmann}
\emailauthor{yu.li.1@campus.tu-berlin.de}{Yu Li}
\emailauthor{taekwon.rhee@gmail.com}{Tae Kwon Rhee}
\emailauthor{seongju.kang09@gmail.com}{Seongjoo Kang}
\emailauthor{gabriel.nobis@gmx.de}{Gabriel Nobis}
\emailauthor{mspringenberg@gmail.com}{Max Springenberg}
\newlabel{E2:a:1}{{1}{2}}
